Place,Name,BirthYear,BodyweightKg,WeightClassKg,Squat1Kg,Squat2Kg,Squat3Kg,Best3SquatKg,Bench1Kg,Bench2Kg,Bench3Kg,Best3BenchKg,Deadlift1Kg,Deadlift2Kg,Deadlift3Kg,Best3DeadliftKg,TotalKg,Country,Division,Equipment,BirthDate,Event,Sex
1,Serge Gauthier,1982,55.52,59,170,177.5,182.5,182.5,107.5,112.5,115,115,185,195,-202.5,195,492.5,Canada,Masters 1,Raw,,SBD,M
2,Wataru Shimoyashiki,1980,57.8,59,160,-170,172.5,172.5,100,105,-107.5,105,200,215,-217.5,215,492.5,Japan,Masters 1,Raw,,SBD,M
3,Martin Smith #3,1981,55.16,59,70,75,80,80,60,-65,-65,60,90,97.5,100,100,240,Australia,Masters 1,Raw,,SBD,M
1,Jean-Sébastien Rhéaume,1974,65.8,66,205,210,215,215,117.5,-120,120,120,222.5,230,-235,230,565,Canada,Masters 1,Raw,,SBD,M
2,Israel Torres,1982,64.44,66,192.5,-195,-195,192.5,125,127.5,132.5,132.5,220,227.5,-232.5,227.5,552.5,Mexico,Masters 1,Raw,,SBD,M
3,Eric Oishi,1979,65.56,66,205,-215,,205,115,-120,-120,115,180,195,-235,195,515,Brazil,Masters 1,Raw,,SBD,M
4,Masaya Morimune,1979,64.96,66,185,197.5,-202.5,197.5,120,-132.5,-132.5,120,195,-207.5,-207.5,195,512.5,Japan,Masters 1,Raw,,SBD,M
5,Masashi Ono,1978,61.82,66,155,165,170,170,95,102.5,105,105,200,210,212.5,212.5,487.5,Japan,Masters 1,Raw,,SBD,M
6,Huaiyu Tan,1977,65.48,66,145,155,-160,155,95,102.5,105,105,200,210,215,215,475,USA,Masters 1,Raw,,SBD,M
7,Anthony Etcheverry,1978,65.64,66,142.5,150,-152.5,150,97.5,100,102.5,102.5,195,205,217.5,217.5,470,France,Masters 1,Raw,,SBD,M
1,André Garcia #1,1982,73.7,74,230,242.5,-247.5,242.5,162.5,170,-172.5,170,250,265,-285,265,677.5,Brazil,Masters 1,Raw,,SBD,M
2,Michael Haran,1982,72.88,74,227.5,-240,242.5,242.5,137.5,142.5,-147.5,142.5,227.5,240,-255,240,625,USA,Masters 1,Raw,,SBD,M
3,Malcolm Long,1977,73.48,74,192.5,202.5,-207.5,202.5,135,140,142.5,142.5,240,250,255,255,600,UK,Masters 1,Raw,,SBD,M
4,David White #1,1982,72.76,74,215,225,232.5,232.5,107.5,115,120,120,220,230,237.5,237.5,590,UK,Masters 1,Raw,,SBD,M
5,Corey Grandy,1981,73.74,74,175,187.5,195,195,-127.5,127.5,-130,127.5,205,215,-227.5,215,537.5,Canada,Masters 1,Raw,,SBD,M
6,Pyoter Radishevsky,1978,73.4,74,172.5,177.5,185,185,115,-120,-120,115,205,212.5,-217.5,212.5,512.5,Canada,Masters 1,Raw,,SBD,M
7,Gonzalo Nuñez Borja,1976,72.54,74,90,100,-110,100,110,120,-125,120,180,195,200,200,420,Peru,Masters 1,Raw,,SBD,M
1,Lauren Cohen,1979,81.73,83,220,-245,266,266,-135,140,150,150,242.5,255,267.5,267.5,683.5,USA,Masters 1,Raw,,SBD,M
2,Jonathan Losa,1982,82.7,83,220,235,-245,235,180,190,196,196,227.5,240,252.5,252.5,683.5,USA,Masters 1,Raw,,SBD,M
3,Danny Potter,1981,82.2,83,205,222.5,227.5,227.5,152.5,165,-170,165,220,240,245,245,637.5,UK,Masters 1,Raw,,SBD,M
4,Mark Fulton,1981,82.64,83,210,220,225,225,137.5,-140,-140,137.5,250,260,270,270,632.5,UK,Masters 1,Raw,,SBD,M
5,Eduardo Assis,1980,82.04,83,207.5,217.5,222.5,222.5,120,-130,-130,120,220,235,252.5,252.5,595,Brazil,Masters 1,Raw,,SBD,M
6,Patrick Rodrigue,1978,82.2,83,-195,195,205,205,112.5,117.5,-122.5,117.5,235,245,255,255,577.5,Canada,Masters 1,Raw,,SBD,M
7,Emile Tahi,1979,82.02,83,167.5,175,182.5,182.5,140,-147.5,147.5,147.5,222.5,235,-245,235,565,France,Masters 1,Raw,,SBD,M
1,Layne Norton,1981,92,93,245,260,272.5,272.5,152.5,162.5,-167.5,162.5,287.5,307.5,-325.5,307.5,742.5,USA,Masters 1,Raw,,SBD,M
2,Gabriel García,1975,92.7,93,280,-290,-290,280,165,-172.5,172.5,172.5,275,290,-300,290,742.5,Mexico,Masters 1,Raw,,SBD,M
3,Sébastien Hupfer,1981,91.66,93,-240,240,-260,240,160,-167.5,167.5,167.5,250,270,-282.5,270,677.5,France,Masters 1,Raw,,SBD,M
4,Hideki Ito,1976,92.5,93,230,245,252.5,252.5,155,165,-170,165,230,245,255,255,672.5,Japan,Masters 1,Raw,,SBD,M
5,Mark Dowling #1,1980,86.58,93,217.5,232.5,240,240,117.5,125,127.5,127.5,257.5,270,282.5,282.5,650,Ireland,Masters 1,Raw,,SBD,M
6,Jamie Emberley,1980,92.82,93,225,235,240,240,145,152.5,155,155,240,250,-260,250,645,Canada,Masters 1,Raw,,SBD,M
7,Michele Tegon,1976,91.92,93,227.5,235,-245,235,145,150,-152.5,150,232.5,245,252.5,252.5,637.5,UK,Masters 1,Raw,,SBD,M
8,Benedikt Björnsson,1978,92.3,93,210,-230,230,230,130,-150,-150,130,230,250,255,255,615,Iceland,Masters 1,Raw,,SBD,M
1,LS McClain,1978,104.56,105,292.5,-297.5,-302.5,292.5,207.5,212.5,217.5,217.5,302.5,310,320,320,830,USA,Masters 1,Raw,,SBD,M
2,Anthony McLeggan,1981,102.42,105,235,255,270,270,195,202.5,207.5,207.5,300,315,322.5,322.5,800,Ireland,Masters 1,Raw,,SBD,M
3,Scott Simon #1,1974,104.04,105,245,260,267.5,267.5,185,190,195,195,260,275,282.5,282.5,745,UK,Masters 1,Raw,,SBD,M
4,Karel Rada #1,1973,104.62,105,255,265,270,270,160,-165,-165,160,260,277.5,285,285,715,Czechia,Masters 1,Raw,,SBD,M
5,Quintin van der Merwe,1982,103.56,105,180,200,-215,200,110,125,-127.5,125,230,240,-245,240,565,South Africa,Masters 1,Raw,,SBD,M
6,Yoichi Sasaki,1976,93.58,105,195,205,210,210,115,120,-130,120,200,215,-222.5,215,545,Japan,Masters 1,Raw,,SBD,M
DQ,Richard Loricourt,1979,97.4,105,-230,-230,-230,-230,145,-150,-150,145,260,270,-280,270,,France,Masters 1,Raw,,SBD,M
1,Ryan J Stills,1976,115.78,120,-295,295,310,310,185,-190,190,190,310,330,-350,330,830,US Virgin Islands,Masters 1,Raw,,SBD,M
2,Colin Power,1982,116.2,120,280,297.5,310,310,187.5,197.5,202.5,202.5,280,300,312.5,312.5,825,Ireland,Masters 1,Raw,,SBD,M
3,Kenneth Cameron,1976,119,120,235,250,260,260,175,-185,-185,175,295,305,-312.5,305,740,USA,Masters 1,Raw,,SBD,M
4,Timothy Mercer,1979,109.84,120,247.5,262.5,-272.5,262.5,172.5,182.5,-187.5,182.5,270,285,-297.5,285,730,USA,Masters 1,Raw,,SBD,M
5,Olof Arvidsson,1979,119.64,120,235,247.5,-255,247.5,-165,165,-170,165,282.5,297.5,307.5,307.5,720,Sweden,Masters 1,Raw,,SBD,M
6,Jonathan Macias,1982,112.5,120,-235,235,245,245,155,-162.5,-162.5,155,240,247.5,252.5,252.5,652.5,Mexico,Masters 1,Raw,,SBD,M
1,Jesús Daniel Prieto Freire,1977,152.34,120+,340,360,365.5,365.5,185,-190,,185,300,310,,310,860.5,Spain,Masters 1,Raw,,SBD,M
2,Ryan Stinn,1981,143.76,120+,-270,270,-285,270,175,185,190,190,275,290,310,310,770,Canada,Masters 1,Raw,,SBD,M
3,Steve Snell #1,1980,145,120+,250,255,-262.5,255,185,190,192.5,192.5,230,237.5,242.5,242.5,690,Canada,Masters 1,Raw,,SBD,M
1,Thomas Wulffeld,1969,58.58,59,157.5,167.5,175,175,77.5,82.5,-85,82.5,200,215,220,220,477.5,Sweden,Masters 2,Raw,,SBD,M
2,Shaun Bateman,1967,58.16,59,130,135,137.5,137.5,95,97.5,100,100,180,187.5,-192.5,187.5,425,UK,Masters 2,Raw,,SBD,M
3,Tomoyoshi Shiiki,1964,58.64,59,120,-130,130,130,105,110,-120.5,110,140,150,-160,150,390,Japan,Masters 2,Raw,,SBD,M
1,Greig Murray,1971,65.24,66,155,-165,165,165,115,120,-122.5,120,220,235,250,250,535,UK,Masters 2,Raw,,SBD,M
2,Michael Feldhaus,1966,65.34,66,162.5,180,187.5,187.5,107.5,117.5,122.5,122.5,195,210,225,225,535,USA,Masters 2,Raw,,SBD,M
3,Bernie McGurk,1968,65.54,66,170,-177.5,177.5,177.5,107.5,112.5,-115,112.5,220,230,-245,230,520,UK,Masters 2,Raw,,SBD,M
DQ,François Besnard,1971,64.36,66,-155,155,-160,155,-120,-120,-120,-120,200,210,-215,210,,France,Masters 2,Raw,,SBD,M
DQ,Christopher Dolk,1972,65.5,66,-160,-160,-165,-160,-120,120,-125,120,180,190,-200,190,,Sweden,Masters 2,Raw,,SBD,M
1,Lewis Noppers,1970,68.62,74,175,187.5,190,190,105,112.5,115,115,235,247.5,260.5,260.5,565.5,Canada,Masters 2,Raw,,SBD,M
2,Travis Pardue,1971,73.72,74,172.5,182.5,187.5,187.5,-107.5,112.5,-117.5,112.5,225,-247.5,-260,225,525,USA,Masters 2,Raw,,SBD,M
3,Tetsuo Koike,1970,73.52,74,145,155,160,160,115,120,125,125,190,207.5,-215,207.5,492.5,Singapore,Masters 2,Raw,,SBD,M
4,Ahmed Zellouf,1969,72.18,74,130,140,-147.5,140,-105,105,-110,105,197.5,-205,-207.5,197.5,442.5,France,Masters 2,Raw,,SBD,M
1,Tom Kean,1972,82.42,83,230,245.5,248,248,140,150,-160,150,227.5,245,252.5,252.5,650.5,Canada,Masters 2,Raw,,SBD,M
2,Ken Bray,1969,78.9,83,207.5,-225,-225,207.5,130,135,-137.5,135,275,-287.5,-287.5,275,617.5,USA,Masters 2,Raw,,SBD,M
3,Kevin Steiger,1972,81.34,83,-185,185,192.5,192.5,110,115,120,120,235,250,260,260,572.5,Canada,Masters 2,Raw,,SBD,M
4,George Millar,1968,81.76,83,195,205,210,210,110,115,-117.5,115,230,245,-257.5,245,570,UK,Masters 2,Raw,,SBD,M
5,Mario Hernandez,1968,81.64,83,165,175,-182.5,175,105,115,-122.5,115,190,210,-217.5,210,500,Mexico,Masters 2,Raw,,SBD,M
1,Jeff Butt,1970,92.68,93,240,247.5,252.5,252.5,142.5,147.5,-150,147.5,260,272.5,282.5,282.5,682.5,Canada,Masters 2,Raw,,SBD,M
2,Alejandro Rodríguez Acuña,1968,92.52,93,240,250,-260,250,150,157.5,162.5,162.5,247.5,257.5,-267.5,257.5,670,Spain,Masters 2,Raw,,SBD,M
3,Edward Ruland,1972,91.22,93,212.5,227.5,,227.5,157.5,170,-175,170,245,-260,-260,245,642.5,USA,Masters 2,Raw,,SBD,M
4,Wallace Clarke,1969,91.12,93,220,-230,230,230,145,150,-155,150,250,-265,-265,250,630,UK,Masters 2,Raw,,SBD,M
5,John Cadigan,1972,91.76,93,-222.5,222.5,232.5,232.5,122.5,125,-127.5,125,222.5,232.5,-240,232.5,590,Canada,Masters 2,Raw,,SBD,M
6,Hamid Jamal,1971,91.88,93,-170,170,-177.5,170,125,130,132.5,132.5,190,200,,200,502.5,Morocco,Masters 2,Raw,,SBD,M
DQ,Robert Rodney,1964,90.78,93,205,215,-220,215,-150,-150,-150,-150,,,,,,UK,Masters 2,Raw,,SBD,M
1,Frode Rui,1969,104.74,105,240,247.5,,247.5,150,-155,-155,150,275,290,-313,290,687.5,Norway,Masters 2,Raw,,SBD,M
2,Abdel Seidouvy,1972,100.88,105,220,230,237.5,237.5,135,-140,-140,135,285,-300,-300,285,657.5,Sweden,Masters 2,Raw,,SBD,M
3,Garmez Parks,1965,103.8,105,215,227.5,-230,227.5,-152.5,157.5,-162.5,157.5,255,265,270,270,655,US Virgin Islands,Masters 2,Raw,,SBD,M
4,Nicolás Urioste,1968,98.46,105,-217.5,-217.5,217.5,217.5,150,157.5,-160,157.5,225,235,-245,235,610,Uruguay,Masters 2,Raw,,SBD,M
5,Christo Schoonraad,1963,103.02,105,230,-247.5,-247.5,230,115,-122.5,-122.5,115,240,260,-270,260,605,South Africa,Masters 2,Raw,,SBD,M
6,Eric Desmoulin,1969,103.9,105,195,207.5,215,215,140,147.5,-150,147.5,225,240,-245,240,602.5,France,Masters 2,Raw,,SBD,M
7,Henrik Smedmark,1967,103.78,105,195,210,-215,210,135,142.5,-147.5,142.5,235,245,-255,245,597.5,Sweden,Masters 2,Raw,,SBD,M
8,Takeshi Yoshimatsu,1968,102.54,105,200,215,225,225,150,160,165,165,190,-210,-215,190,580,Japan,Masters 2,Raw,,SBD,M
9,Kaj Wasenius,1972,102.84,105,170,175,180,180,120,125,130,130,220,235,-265,235,545,Finland,Masters 2,Raw,,SBD,M
1,Scott Robertson,1970,119.48,120,285,305,320,320,197.5,210,217.5,217.5,255,270,-277.5,270,807.5,Canada,Masters 2,Raw,,SBD,M
2,Mark Notschaele,1963,118.88,120,230,240,250,250,155,160,-165,160,240,-255,-255,240,650,Luxembourg,Masters 2,Raw,,SBD,M
3,Jens Lund Tvilling Vinther,1965,116.36,120,170,190,202.5,202.5,140,147.5,-150,147.5,240,247.5,-255,247.5,597.5,Denmark,Masters 2,Raw,,SBD,M
4,Kaj Mattila,1970,106,120,200,210,-215,210,125,130,132.5,132.5,215,225,230,230,572.5,Finland,Masters 2,Raw,,SBD,M
5,Keith Carlascio,1969,111.87,120,157.5,-167.5,167.5,167.5,102.5,112.5,122.5,122.5,180,192.5,205,205,495,USA,Masters 2,Raw,,SBD,M
1,Jaroslav Šoukal,1972,171.5,120+,265,290,305.5,305.5,165,177.5,185,185,265,287.5,-315,287.5,778,Czechia,Masters 2,Raw,,SBD,M
2,Robert Fuller,1970,145.48,120+,235,247.5,-260,247.5,157.5,162.5,-167.5,162.5,247.5,267.5,277.5,277.5,687.5,Puerto Rico,Masters 2,Raw,,SBD,M
3,Ronny Andersen,1964,121.46,120+,205,220,225,225,160,-170,-170,160,250,260,270,270,655,Norway,Masters 2,Raw,,SBD,M
4,Tim Nadeau,1971,148.18,120+,237.5,250,257.5,257.5,132.5,140,-142.5,140,250,257.5,-272.5,257.5,655,Canada,Masters 2,Raw,,SBD,M
5,Wim Wamsteeker,1969,132.34,120+,215,222.5,,222.5,120,127.5,,127.5,240,247.5,,247.5,597.5,Netherlands,Masters 2,Raw,,SBD,M
6,Steve Campbell,1969,125.88,120+,182.5,192.5,200,200,85,97.5,-102.5,97.5,220,230,-242.5,230,527.5,Canada,Masters 2,Raw,,SBD,M
1,Shoichi Watanabe,1958,65.48,66,160,175,186,186,115,-120,-120,115,165,170,175,175,476,Japan,Masters 3,Raw,,SBD,M
DQ,Rafael López Cabello,1958,65.37,66,-165,-165,-165,-165,80,,,80,190,200,210,210,,Spain,Masters 3,Raw,,SBD,M
1,Bernard Vachon,1955,73.46,74,192.5,197.5,202.5,202.5,82.5,87.5,90,90,210,217.5,230,230,522.5,Canada,Masters 3,Raw,,SBD,M
2,Carlos Lewis,1958,73.4,74,177.5,185,-190,185,-125,125,-130,125,200,210,-212.5,210,520,US Virgin Islands,Masters 3,Raw,,SBD,M
3,Allen Ottolangui,1960,73.5,74,-165,165,-170,165,85,90,-92.5,90,180,190,-197.5,190,445,UK,Masters 3,Raw,,SBD,M
4,Hordur Birkirsson,1958,73.16,74,-155,155,-165,155,75,85,90,90,175,185,-195,185,430,Iceland,Masters 3,Raw,,SBD,M
1,Willie Wong,1961,82.72,83,-200,200,210,210,105,107.5,110,110,205,215,222.5,222.5,542.5,USA,Masters 3,Raw,,SBD,M
2,Stephen Varady,1962,81.72,83,152.5,165,172.5,172.5,132.5,142.5,-145,142.5,190,205,-220,205,520,Australia,Masters 3,Raw,,SBD,M
3,James Abraham,1961,82.62,83,165,170,175,175,112.5,-117.5,-117.5,112.5,200,205,210,210,497.5,Canada,Masters 3,Raw,,SBD,M
4,Masayasu Oyagi,1961,79.5,83,-160,-160,160,160,100,-105,-105,100,200,205,-210,205,465,Japan,Masters 3,Raw,,SBD,M
5,Erik Rasmussen,1962,82.64,83,170,175,177.5,177.5,120,125,-127.5,125,160,-165,,160,462.5,Denmark,Masters 3,Raw,,SBD,M
6,Kazuyoshi Araishi,1958,81.12,83,100,110,120,120,-90,90,95,95,160,170,-175,170,385,Japan,Masters 3,Raw,,SBD,M
DQ,Régis Gautier,1956,82.02,83,-140,-140,-140,-140,85,87.5,90,90,210,217.5,-222.5,217.5,,France,Masters 3,Raw,,SBD,M
DQ,John Fraser,1956,82.86,83,-145,-145,-145,-145,122.5,125,127.5,127.5,200,-207.5,-207.5,200,,Canada,Masters 3,Raw,,SBD,M
1,David Ricks,1959,92.46,93,-282.5,282.5,-305.5,282.5,180,192.5,205.5,205.5,255,288,-310.5,288,776,US Virgin Islands,Masters 3,Raw,,SBD,M
2,Glen Cormier,1957,89.7,93,205,210,-215,210,127.5,135,140,140,205,212.5,217.5,217.5,567.5,Canada,Masters 3,Raw,,SBD,M
3,Morten Rygh,1958,91.18,93,140,-160,160,160,87.5,92.5,-97.5,92.5,170,190,-212.5,190,442.5,Norway,Masters 3,Raw,,SBD,M
DQ,Akira Andoh,1960,88.92,93,-180,-180,-180,-180,120,-125,-125,120,200,210,-220,210,,Japan,Masters 3,Raw,,SBD,M
1,Steven Crane,1962,97.3,105,195,202.5,-207.5,202.5,142.5,147.5,152.5,152.5,227.5,235,240,240,595,Puerto Rico,Masters 3,Raw,,SBD,M
2,Rolf Popp,1961,103.62,105,172.5,187.5,200,200,142.5,147.5,152.5,152.5,205,217.5,225,225,577.5,Canada,Masters 3,Raw,,SBD,M
3,Ladislav Horny,1959,103.88,105,197.5,205,-212.5,205,140,145,-150,145,200,212.5,225,225,575,Slovakia,Masters 3,Raw,,SBD,M
4,Rory McCoy,1955,104.36,105,167.5,-175,-175,167.5,117.5,125,130,130,215,235,240,240,537.5,USA,Masters 3,Raw,,SBD,M
5,Svend Bradtberg,1962,94.2,105,175,-180,-187.5,175,105,-112.5,112.5,112.5,170,185,-200,185,472.5,Denmark,Masters 3,Raw,,SBD,M
6,Katsumi Akiyama,1962,104.3,105,130,150,160,160,140,-147.5,-147.5,140,150,170,-192.5,170,470,Japan,Masters 3,Raw,,SBD,M
1,Ron Kilpatrick,1959,105.9,120,210,222.5,230,230,80,90,100,100,215,230,250,250,580,Canada,Masters 3,Raw,,SBD,M
2,Brian Rock,1959,111.86,120,190,197.5,205,205,-160,160,-167.5,160,197.5,207.5,215,215,580,Canada,Masters 3,Raw,,SBD,M
3,Robert Cross,1957,109.66,120,165,175,182.5,182.5,115,122.5,127.5,127.5,187.5,200,210,210,520,USA,Masters 3,Raw,,SBD,M
1,Ron Strong,1958,122.76,120+,200,210,217.5,217.5,130,137.5,142.5,142.5,245,260,-272.5,260,620,Canada,Masters 3,Raw,,SBD,M
2,Lars Lampinen,1961,123.54,120+,220,-240,-240,220,140,-160,-160,140,240,260,-270,260,620,Finland,Masters 3,Raw,,SBD,M
3,Bob Sadler,1962,135.8,120+,210,225,-230,225,110,-115,,110,225,237.5,-245,237.5,572.5,UK,Masters 3,Raw,,SBD,M
4,Richard Bettina,1957,131.32,120+,-192.5,192.5,207.5,207.5,120,122.5,-125,122.5,207.5,227.5,235,235,565,USA,Masters 3,Raw,,SBD,M
5,Geoffrey Holmes,1961,137,120+,200,-217.5,-220,200,100,105,-107.5,105,200,217.5,225,225,530,New Zealand,Masters 3,Raw,,SBD,M
1,Sam Felts,1952,58.4,59,85,-90,90,90,85,-95.5,95.5,95.5,110,130,142.5,142.5,328,USA,Masters 4,Raw,,SBD,M
2,Pierre Colombet,1950,57.58,59,72.5,77.5,85,85,62.5,-65,-65,62.5,97.5,102.5,110,110,257.5,France,Masters 4,Raw,,SBD,M
1,Manuel Rodriguez #1,1949,64.16,66,137.5,142.5,-147.5,142.5,75,85,-92.5,85,175,185,190,190,417.5,US Virgin Islands,Masters 4,Raw,,SBD,M
1,Dale Garlitz,1950,71.22,74,140,-150,150,150,95,100,105,105,175,182.5,187.5,187.5,442.5,USA,Masters 4,Raw,,SBD,M
2,John Terragni,1947,71.9,74,140,-147.5,147.5,147.5,107.5,115,117.5,117.5,157.5,167.5,177.5,177.5,442.5,Denmark,Masters 4,Raw,,SBD,M
3,Guenter Runniger,1952,72.28,74,-140,140,145,145,82.5,87.5,90,90,172.5,185,-190,185,420,Germany,Masters 4,Raw,,SBD,M
4,Kuniyoshi Sato,1943,73.72,74,130,-150,-150,130,-90,100,-102.5,100,160,180,-195,180,410,Japan,Masters 4,Raw,,SBD,M
5,Jean-Yves Marion,1952,72.54,74,125,-130,-130,125,80,-85,-85,80,155,160,162.5,162.5,367.5,France,Masters 4,Raw,,SBD,M
1,John LaFlamme,1950,82.1,83,175,182.5,190,190,95,100,105,105,215,225,-227.5,225,520,US Virgin Islands,Masters 4,Raw,,SBD,M
1,Ron Delaney,1951,84,93,142.5,-150,155,155,95,100,-102.5,100,200,212.5,220,220,475,Canada,Masters 4,Raw,,SBD,M
2,John Alderman,1948,84.86,93,120,-127.5,-127.5,120,105,-110,110,110,150,-160,-160,150,380,USA,Masters 4,Raw,,SBD,M
3,Tapani Puhakka,1944,87.76,93,65,-75,,65,75,82.5,-85,82.5,140,-152.5,155,155,302.5,Finland,Masters 4,Raw,,SBD,M
1,Miroslav Koprnicky,1951,101.66,105,157.5,162.5,-165,162.5,117.5,122.5,127.5,127.5,182.5,190,197.5,197.5,487.5,Canada,Masters 4,Raw,,SBD,M
2,Christian Delpieu,1951,99,105,170,-180,-180,170,100,105,-107.5,105,180,192.5,200,200,475,France,Masters 4,Raw,,SBD,M
1,Jean-Paul Belmas,1949,106.8,120,160,170,180,180,95,100,-102.5,100,170,190,,190,470,France,Masters 4,Raw,,SBD,M
1,Brigden Noelle,1977,45.78,47,97.5,-102.5,102.5,102.5,70,72.5,75,75,125,130,-132.5,130,307.5,USA,Masters 1,Raw,,SBD,F
2,Marianne Bouvard,1976,46.56,47,95,-100,100,100,67.5,70,-72.5,70,110,120,-125,120,290,France,Masters 1,Raw,,SBD,F
3,Natalie Sleiers,1977,46.02,47,95,-102.5,-102.5,95,-60,60,-62.5,60,122.5,-135,-135,122.5,277.5,Sweden,Masters 1,Raw,,SBD,F
4,Daniela Ferreira,1978,46.7,47,80,-85,-85,80,45,47.5,-50,47.5,100,107.5,-115,107.5,235,Brazil,Masters 1,Raw,,SBD,F
1,Adriana Pence,1975,51.32,52,127.5,132.5,137.5,137.5,57.5,60,62.5,62.5,150,155,160,160,360,US Virgin Islands,Masters 1,Raw,,SBD,F
2,Elisabeth Barry,1973,47.98,52,70,75,-80,75,35,37.5,-40,37.5,100,107.5,112.5,112.5,225,South Africa,Masters 1,Raw,,SBD,F
3,Katja Ronkainen,1973,47.4,52,50,60,-70,60,40,42.5,-45,42.5,80,90,97.5,97.5,200,Finland,Masters 1,Raw,,SBD,F
1,Elise Rummens,1981,55.24,57,112.5,120,-125,120,67.5,70,72.5,72.5,157.5,165,170,170,362.5,Belgium,Masters 1,Raw,,SBD,F
2,Emma Drackford,1979,56.42,57,125,130,132.5,132.5,57.5,60,62.5,62.5,130,135,-137.5,135,330,UK,Masters 1,Raw,,SBD,F
3,Jasmin Treimer,1976,56.8,57,95,102.5,110,110,55,57.5,-60,57.5,142.5,147.5,152.5,152.5,320,Germany,Masters 1,Raw,,SBD,F
4,Diana Patricia Buitrago Rodríguez,1978,55.92,57,-110,110,-115,110,57.5,60,-62.5,60,135,140,-150,140,310,Spain,Masters 1,Raw,,SBD,F
5,Sarah Gravino,1977,56.12,57,92.5,-100,102.5,102.5,62.5,67.5,-70,67.5,-125,-125,125,125,295,USA,Masters 1,Raw,,SBD,F
6,Anya Feltrauter,1982,55.46,57,105,-112.5,-115,105,40,-45,45,45,120,125,-130,125,275,Sweden,Masters 1,Raw,,SBD,F
DQ,Joanne Rose,1973,56.52,57,-107.5,-107.5,-107.5,-107.5,57.5,60,-62.5,60,137.5,142.5,147.5,147.5,,Canada,Masters 1,Raw,,SBD,F
1,Nataliia Zhukovska,1981,62.94,63,142.5,147.5,-150,147.5,90,92.5,-95,92.5,195,-203,203,203,443,Ukraine,Masters 1,Raw,,SBD,F
2,Hannah Yardy,1982,62.04,63,135,142.5,147.5,147.5,80,85,87.5,87.5,165,175,-190,175,410,UK,Masters 1,Raw,,SBD,F
3,Colette Haddon,1974,62.38,63,137.5,145,-150,145,72.5,75,77.5,77.5,-165,170,180,180,402.5,Netherlands,Masters 1,Raw,,SBD,F
4,Janie Jacobucci,1976,60.18,63,127.5,132.5,137.5,137.5,-72.5,72.5,-77.5,72.5,-157.5,-157.5,157.5,157.5,367.5,Canada,Masters 1,Raw,,SBD,F
5,Shannell Traylor,1982,61.38,63,-107.5,110,-115,110,60,65,67.5,67.5,135,142.5,150,150,327.5,USA,Masters 1,Raw,,SBD,F
6,Martha Rodriguez,1978,61.3,63,95,105,112.5,112.5,52.5,-57.5,-57.5,52.5,120,130,135,135,300,Mexico,Masters 1,Raw,,SBD,F
1,Cícera Tavares,1976,68.32,69,177.5,-187.5,187.5,187.5,92.5,97.5,-100,97.5,195,210,-220,210,495,Brazil,Masters 1,Raw,,SBD,F
2,Raquel de la Calle Labarzana,1977,68.54,69,-160,165,172.5,172.5,77.5,82.5,-87.5,82.5,160,170,175,175,430,Spain,Masters 1,Raw,,SBD,F
3,Roshelle Jessop,1975,68.58,69,135,142.5,-145,142.5,87.5,92.5,95,95,175,185,190,190,427.5,New Zealand,Masters 1,Raw,,SBD,F
4,Alexa Sperske,1982,67.94,69,142.5,-150,150,150,72.5,75,77.5,77.5,175,185,-200,185,412.5,Canada,Masters 1,Raw,,SBD,F
5,Joanne Coogan,1982,66.1,69,132.5,-140,140,140,82.5,85,87.5,87.5,150,165,175,175,402.5,Ireland,Masters 1,Raw,,SBD,F
6,Catherine Woodward,1979,66.2,69,130,135,137.5,137.5,77.5,82.5,85,85,147.5,-155,-155,147.5,370,UK,Masters 1,Raw,,SBD,F
7,Melissa Schulte,1976,67.96,69,120,125,-130,125,72.5,-77.5,-77.5,72.5,137.5,145,-150,145,342.5,USA,Masters 1,Raw,,SBD,F
8,Minna Jaakkola,1979,68.06,69,105,112.5,117.5,117.5,60,62.5,-65,62.5,140,150,-155,150,330,Finland,Masters 1,Raw,,SBD,F
9,Amy Suzan,1976,67.78,69,95,107.5,-117.5,107.5,70,-77.5,-77.5,70,132.5,142.5,147.5,147.5,325,US Virgin Islands,Masters 1,Raw,,SBD,F
10,Rupa Dainer,1976,67.34,69,85,95,105,105,60,67.5,-72.5,67.5,130,140,-145,140,312.5,US Virgin Islands,Masters 1,Raw,,SBD,F
11,Harumi Ito,1978,66.16,69,90,95,-110,95,60,-65,-65,60,125,135,150,150,305,Japan,Masters 1,Raw,,SBD,F
1,Kimberly Walford,1978,74.56,76,175,180,-185,180,102.5,105,-107.5,105,230,237.5,244.5,244.5,529.5,US Virgin Islands,Masters 1,Raw,,SBD,F
2,Joah Iannotta,1973,74,76,135,142.5,150,150,105,112.5,116,116,170,182.5,185,185,451,USA,Masters 1,Raw,,SBD,F
3,Karen Tvedt,1977,75.76,76,160,170,177.5,177.5,90,92.5,95,95,167.5,177.5,-185,177.5,450,Norway,Masters 1,Raw,,SBD,F
4,Melissa Garron,1981,75,76,145,155,160,160,90,95,-97.5,95,182.5,192.5,-195,192.5,447.5,Canada,Masters 1,Raw,,SBD,F
5,Sylvia Atkinson,1973,72.74,76,155,165,170,170,70,72.5,75,75,175,185,195,195,440,Canada,Masters 1,Raw,,SBD,F
6,Aileen Muldoon,1978,74.2,76,132.5,142.5,147.5,147.5,77.5,82.5,-85,82.5,155,165,172.5,172.5,402.5,Ireland,Masters 1,Raw,,SBD,F
7,Malin Wahlberg,1974,74.72,76,135,-142.5,142.5,142.5,75,80,-82.5,80,145,155,-162.5,155,377.5,Sweden,Masters 1,Raw,,SBD,F
8,Sarah Wheal,1977,75.02,76,117.5,127.5,135,135,80,85,-87.5,85,140,150,155,155,375,Australia,Masters 1,Raw,,SBD,F
9,Ajanta Hilton,1978,74.54,76,130,135,-137.5,135,-70,70,-72.5,70,150,157.5,-165,157.5,362.5,UK,Masters 1,Raw,,SBD,F
10,Olivia Lannon,1980,70.08,76,115,125,-130,125,62.5,67.5,-70,67.5,145,157.5,162.5,162.5,355,Australia,Masters 1,Raw,,SBD,F
11,Mariana Simion Rönngårdh,1982,73.72,76,-122.5,122.5,130,130,-75,75,-77.5,75,150,-160,-160,150,355,Sweden,Masters 1,Raw,,SBD,F
1,Iolanda Costa Zolyome,1977,76.3,84,170,-180,180,180,105,110,112.5,112.5,190,197.5,207.5,207.5,500,Brazil,Masters 1,Raw,,SBD,F
2,Frida Henell,1978,82.8,84,175,182.5,187.5,187.5,102.5,-107.5,107.5,107.5,185,192.5,-197.5,192.5,487.5,Sweden,Masters 1,Raw,,SBD,F
3,Marie Wagner,1982,83.26,84,170,177.5,182.5,182.5,95,100,102.5,102.5,180,190,192.5,192.5,477.5,Canada,Masters 1,Raw,,SBD,F
4,Mila Cuevas Mulero,1974,83.62,84,165,-172.5,172.5,172.5,82.5,-85,-85,82.5,200,210,-223,210,465,Spain,Masters 1,Raw,,SBD,F
5,Hira Teirney,1982,83.18,84,140,147.5,152.5,152.5,75,77.5,-80,77.5,195,207.5,212.5,212.5,442.5,UK,Masters 1,Raw,,SBD,F
6,Lillian Chumbly,1977,82.92,84,162.5,170,175,175,85,90,-92.5,90,155,165,175,175,440,Canada,Masters 1,Raw,,SBD,F
7,Linette Bogdan,1980,80.18,84,142.5,152.5,-162.5,152.5,87.5,92.5,-95,92.5,175,187.5,-192.5,187.5,432.5,USA,Masters 1,Raw,,SBD,F
8,Siri Hoogen,1974,82.16,84,-135,135,-140,135,80,87.5,90,90,165,-170,170,170,395,US Virgin Islands,Masters 1,Raw,,SBD,F
9,Lisa Grant #2,1977,83.24,84,125,130,-132.5,130,65,67.5,70,70,185,-195,-195,185,385,UK,Masters 1,Raw,,SBD,F
10,Margaret Carey,1982,82.42,84,135,145,-152.5,145,72.5,77.5,-80,77.5,75,125,140,140,362.5,Ireland,Masters 1,Raw,,SBD,F
11,Evelyne Roos,1980,83.94,84,130,-137.5,-137.5,130,65,-67.5,-67.5,65,145,155,162.5,162.5,357.5,Belgium,Masters 1,Raw,,SBD,F
1,Monique Boddie,1982,114.68,84+,190,200,,200,130,135,137.5,137.5,230.5,235,-240,235,572.5,US Virgin Islands,Masters 1,Raw,,SBD,F
2,Melissa Copeland,1977,113.72,84+,192.5,-200,,192.5,115,122.5,127.5,127.5,180,195,205,205,525,USA,Masters 1,Raw,,SBD,F
3,Joanne Parkin,1975,122.14,84+,167.5,172.5,177.5,177.5,95,100,-102.5,100,202.5,-207.5,-207.5,202.5,480,UK,Masters 1,Raw,,SBD,F
4,April Hutchinson,1976,103.12,84+,165,-170,-170,165,77.5,82.5,85,85,210,220,-230,220,470,Canada,Masters 1,Raw,,SBD,F
5,Liisa Asanti,1978,132.88,84+,160,170,175,175,87.5,-92.5,-92.5,87.5,190,205,-210,205,467.5,Finland,Masters 1,Raw,,SBD,F
6,Jenny Wik Norling,1975,120.26,84+,150,160,170,170,92.5,97.5,-100,97.5,157.5,167.5,172.5,172.5,440,Sweden,Masters 1,Raw,,SBD,F
7,Esther Wilten,1982,125.26,84+,162.5,170,180,180,72.5,-77.5,-77.5,72.5,167.5,177.5,185,185,437.5,Netherlands,Masters 1,Raw,,SBD,F
8,Emma Kiely,1974,103.22,84+,130,-140,-140,130,75,-80,-80,75,160,170,180,180,385,Ireland,Masters 1,Raw,,SBD,F
9,Helena Rehnberg,1979,128.96,84+,110,115,120,120,55,60,65,65,145,155,,155,340,Finland,Masters 1,Raw,,SBD,F
10,Yisa Ochoa,1977,97.26,84+,-110,110,117.5,117.5,70,75,77.5,77.5,110,117.5,-125,117.5,312.5,Mexico,Masters 1,Raw,,SBD,F
1,Lynn Aronica,1972,45.78,47,-75,80,-85,80,47.5,52.5,55,55,100,110,-115,110,245,USA,Masters 2,Raw,,SBD,F
1,Eva Buxbom,1969,51.24,52,95,100,102.5,102.5,60,62.5,65,65,140,-147.5,,140,307.5,Denmark,Masters 2,Raw,,SBD,F
2,Winnie Abramson,1970,51.66,52,112.5,117.5,-120,117.5,55,60,-62.5,60,130,-137.5,-137.5,130,307.5,USA,Masters 2,Raw,,SBD,F
3,Janique Lafond,1964,50.24,52,100,105,110,110,50,52.5,-55,52.5,112.5,117.5,122.5,122.5,285,Canada,Masters 2,Raw,,SBD,F
4,Alida Sharp,1963,50.72,52,-80,80,87.5,87.5,55,60,-62.5,60,110,120,125,125,272.5,Belize,Masters 2,Raw,,SBD,F
5,Melissa Forbis,1966,51.6,52,90,95,97.5,97.5,47.5,50,52.5,52.5,102.5,110,-115,110,260,USA,Masters 2,Raw,,SBD,F
6,Angelina Lane,1969,51.64,52,-85,85,87.5,87.5,47.5,-52.5,-52.5,47.5,110,117.5,122.5,122.5,257.5,UK,Masters 2,Raw,,SBD,F
7,Johanna Jaaranen,1965,51.2,52,67.5,72.5,77.5,77.5,42.5,47.5,-52.5,47.5,105,110,-112.5,110,235,Finland,Masters 2,Raw,,SBD,F
1,Christine Rebello,1972,56.64,57,125,130.5,-133.5,130.5,75,77.5,-80,77.5,150,160,168,168,376,Netherlands,Masters 2,Raw,,SBD,F
2,Karen Burns,1968,56.64,57,115,117.5,120,120,57.5,-62.5,-62.5,57.5,145,152.5,162.5,162.5,340,UK,Masters 2,Raw,,SBD,F
3,Jodie McPeak,1968,54.92,57,117.5,122.5,-127.5,122.5,65,67.5,-70,67.5,137.5,145,147.5,147.5,337.5,Canada,Masters 2,Raw,,SBD,F
4,Nina Honka,1972,56.64,57,100,105,-110,105,55,57.5,-60,57.5,130,140,-147.5,140,302.5,Finland,Masters 2,Raw,,SBD,F
5,Deborah Tiernan,1963,56.24,57,95,-100,100,100,57.5,60,62.5,62.5,120,127.5,135,135,297.5,UK,Masters 2,Raw,,SBD,F
6,Ellinor Kempe,1971,56.5,57,100,107.5,112.5,112.5,45,-50,-50,45,120,130,-142.5,130,287.5,Sweden,Masters 2,Raw,,SBD,F
7,Megumi Sekiya,1964,56.46,57,82.5,90,-92.5,90,40,42.5,-45,42.5,110,120,-130,120,252.5,Japan,Masters 2,Raw,,SBD,F
1,Holly Lasante,1971,62.4,63,127.5,132.5,135,135,62.5,-67.5,67.5,67.5,155,162.5,-170,162.5,365,Canada,Masters 2,Raw,,SBD,F
2,Tracey Seaward,1972,61.74,63,112.5,117.5,122.5,122.5,60,65,67.5,67.5,-145,152.5,160,160,350,Canada,Masters 2,Raw,,SBD,F
3,Sharon Holmes #1,1972,62.32,63,120,125,127.5,127.5,70,72.5,75,75,140,147.5,-150,147.5,350,UK,Masters 2,Raw,,SBD,F
4,Jessica Jading,1971,61.4,63,95,102.5,107.5,107.5,-57.5,57.5,60,60,157.5,167.5,-182.5,167.5,335,Sweden,Masters 2,Raw,,SBD,F
5,Michelle Carlascio,1971,61.78,63,55,62.5,70,70,45,50,52.5,52.5,100,-110,-110,100,222.5,USA,Masters 2,Raw,,SBD,F
DQ,Florence Leccese,1969,61.12,63,-115,-117.5,-120,-115,67.5,-70,-70,67.5,110,117.5,122.5,122.5,,France,Masters 2,Raw,,SBD,F
1,Roberta Carlson #1,1965,67.8,69,127.5,132.5,-135,132.5,67.5,72.5,-75,72.5,165,172.5,182.5,182.5,387.5,USA,Masters 2,Raw,,SBD,F
2,Karen Barry,1966,68.56,69,135,145,150.5,150.5,70,75,77.5,77.5,135,147.5,157.5,157.5,385.5,Ireland,Masters 2,Raw,,SBD,F
3,Heather Tagg,1966,68.72,69,125,130,135,135,70,-72.5,-72.5,70,162.5,172.5,-177.5,172.5,377.5,UK,Masters 2,Raw,,SBD,F
4,Terrie Redmore,1970,67.6,69,127.5,135,-140,135,72.5,77.5,-80,77.5,135,140,-142.5,140,352.5,UK,Masters 2,Raw,,SBD,F
5,Louise de Jong,1969,67.7,69,112.5,120,125,125,67.5,72.5,-75,72.5,135,140,-147.5,140,337.5,Netherlands,Masters 2,Raw,,SBD,F
1,Mia Öhrnell,1972,74.84,76,150,160,165.5,165.5,85,90,-92.5,90,147.5,155,162.5,162.5,418,Sweden,Masters 2,Raw,,SBD,F
2,Tracy Wise,1972,74.46,76,120,130,135,135,77.5,82.5,85,85,142.5,150,160,160,380,Canada,Masters 2,Raw,,SBD,F
3,Cynthia Line,1968,73.16,76,125,130,135,135,72.5,77.5,80,80,145,155,162.5,162.5,377.5,USA,Masters 2,Raw,,SBD,F
4,Joy Mineo,1967,73.36,76,110,115,120,120,70,72.5,75,75,145,155,160,160,355,UK,Masters 2,Raw,,SBD,F
5,Helen Twomey,1967,74.98,76,110,115,-120,115,72.5,75,-77.5,75,150,160,165,165,355,Ireland,Masters 2,Raw,,SBD,F
6,Marta Esteban Herranz,1972,71.72,76,80,90,-110,90,-60,60,-72.5,60,90,110,120,120,270,Spain,Masters 2,Raw,,SBD,F
1,Georgina Hazell,1969,82.78,84,137.5,142.5,147.5,147.5,85,90,92.5,92.5,170,180,187.5,187.5,427.5,UK,Masters 2,Raw,,SBD,F
2,Kelly Gibson Bateman,1969,80.18,84,142.5,-150,150,150,82.5,87.5,90,90,140,152.5,160,160,400,USA,Masters 2,Raw,,SBD,F
3,Kelly Stoikov,1971,81.78,84,137.5,-147.5,150,150,65,67.5,70,70,160,167.5,-182.5,167.5,387.5,Australia,Masters 2,Raw,,SBD,F
4,Marija Graham,1969,81.68,84,-135,-135,135,135,57.5,62.5,-65,62.5,145,155,162.5,162.5,360,Canada,Masters 2,Raw,,SBD,F
5,Rita Pernille Bråthen,1968,82.92,84,100,110,117.5,117.5,60,65,-70,65,130,140,145,145,327.5,Norway,Masters 2,Raw,,SBD,F
1,Lilyan Jackson,1970,176,84+,172.5,182.5,190,190,116,120,-125,120,175,185,-195,185,495,USA,Masters 2,Raw,,SBD,F
2,Barbara Claassen,1971,122.66,84+,172.5,180,182.5,182.5,80,85,-87.5,85,170,180,187.5,187.5,455,Netherlands,Masters 2,Raw,,SBD,F
3,Ali Cosner,1971,101.96,84+,132.5,140,145,145,87.5,92.5,95,95,180,192.5,200,200,440,New Zealand,Masters 2,Raw,,SBD,F
4,Wanda Lewis,1968,103.12,84+,130,135,142.5,142.5,70,72.5,75,75,170,182.5,187.5,187.5,405,Canada,Masters 2,Raw,,SBD,F
1,Silvana Tancredi García,1959,45.6,47,-80,80,-85,80,42.5,45,-47.5,45,80,90,-105,90,215,Spain,Masters 3,Raw,,SBD,F
1,Maureen MacEwen,1959,50.04,52,82.5,-90,-90,82.5,37.5,-40,-40,37.5,107.5,112.5,115,115,235,Canada,Masters 3,Raw,,SBD,F
2,Jenny Hunter,1958,51.6,52,50,55,60,60,55,60,62.5,62.5,90,100,105,105,227.5,UK,Masters 3,Raw,,SBD,F
1,Helen Trenerry,1961,55.9,57,82.5,-90,90,90,50,55,-57.5,55,130,140,-145,140,285,Australia,Masters 3,Raw,,SBD,F
2,Ingeborg Gjone,1961,56.12,57,90,95,-100,95,52.5,-55,-55,52.5,117.5,125,127.5,127.5,275,Norway,Masters 3,Raw,,SBD,F
3,Caroline Cunniffe,1957,56.54,57,82.5,90,95,95,45,50,-52.5,50,110,120,125,125,270,Ireland,Masters 3,Raw,,SBD,F
4,Valerie Dourley,1959,56.78,57,102.5,105,107.5,107.5,45,47.5,-50,47.5,110,112.5,115,115,270,UK,Masters 3,Raw,,SBD,F
5,Dora Justice,1957,55.92,57,70,77.5,80,80,70,75,77.5,77.5,95,105,110,110,267.5,USA,Masters 3,Raw,,SBD,F
6,Lynne Homan,1962,56.28,57,75,80,82.5,82.5,55,57.5,-60,57.5,110,117.5,-122.5,117.5,257.5,USA,Masters 3,Raw,,SBD,F
7,Tara Conlon,1959,55.78,57,57.5,62.5,67.5,67.5,42.5,-45,-45,42.5,95,105,-110,105,215,Ireland,Masters 3,Raw,,SBD,F
1,Suzanne LaForge,1959,61.98,63,105,117.5,-120,117.5,62.5,67.5,-70,67.5,142.5,158,167.5,167.5,352.5,USA,Masters 3,Raw,,SBD,F
2,Joan Trimble,1955,61.52,63,107.5,112.5,117.5,117.5,52.5,57.5,-62.5,57.5,132.5,145,-152.5,145,320,UK,Masters 3,Raw,,SBD,F
3,Fran Harris,1961,61.18,63,95,100,105,105,65,-67.5,-67.5,65,132.5,137.5,142.5,142.5,312.5,Canada,Masters 3,Raw,,SBD,F
4,Arlene van Diepen,1957,61.9,63,87.5,92.5,97.5,97.5,50,52.5,-55,52.5,127.5,135,140,140,290,Canada,Masters 3,Raw,,SBD,F
5,Mairead Collins,1956,62.3,63,87.5,95,102.5,102.5,35,-40,40,40,107.5,115,120,120,262.5,Ireland,Masters 3,Raw,,SBD,F
6,Susan Sabuda,1954,61.8,63,80,82.5,85,85,50,52.5,-55,52.5,112.5,117.5,,117.5,255,UK,Masters 3,Raw,,SBD,F
1,Gail-Ann Breese,1960,64.82,69,100,105,107.5,107.5,55,57.5,60,60,142.5,152.5,153,153,320.5,Canada,Masters 3,Raw,,SBD,F
2,Kirsti Løken,1954,67.82,69,105,110,115.5,115.5,60,65,-67.5,65,130,140,-147.5,140,320.5,Norway,Masters 3,Raw,,SBD,F
3,Deb Ellard,1958,67.62,69,95,-100,-100,95,-67.5,67.5,70,70,110,-115,-117.5,110,275,Canada,Masters 3,Raw,,SBD,F
4,Annelie Gylemo,1958,67.38,69,95,102.5,107.5,107.5,35,-40,-40,35,-125,125,-132.5,125,267.5,Sweden,Masters 3,Raw,,SBD,F
5,Irene Matinpalo,1961,68.5,69,85,92.5,-97.5,92.5,42.5,45,-47.5,45,110,115,120,120,257.5,Finland,Masters 3,Raw,,SBD,F
6,Caroline Calver,1958,67.08,69,82.5,87.5,90,90,42.5,45,-47.5,45,110,115,120,120,255,UK,Masters 3,Raw,,SBD,F
1,Elsa Pálsdóttir,1960,74.28,76,-120,132.5,-138,132.5,57.5,62.5,65,65,145,147.5,160,160,357.5,Iceland,Masters 3,Raw,,SBD,F
2,Barbara Beaudin,1961,74.76,76,100,105,-110,105,57.5,62.5,-65,62.5,147.5,155,-160,155,322.5,USA,Masters 3,Raw,,SBD,F
3,Pamela King,1959,75.72,76,110,115,-117.5,115,67.5,72.5,-75,72.5,115,122.5,130,130,317.5,Canada,Masters 3,Raw,,SBD,F
4,Mary Fusco,1957,72.26,76,95,105,110,110,50,52.5,-55,52.5,110,115,120,120,282.5,Ireland,Masters 3,Raw,,SBD,F
5,Susanne Bäckström,1960,73.14,76,85,95,-102.5,95,50,52.5,55,55,112.5,120,125,125,275,Sweden,Masters 3,Raw,,SBD,F
6,Silja Mansikka-Aho,1959,75.58,76,85,92.5,-100,92.5,40,42.5,45,45,125,132.5,137.5,137.5,275,Finland,Masters 3,Raw,,SBD,F
1,Inger Blikra,1961,82.3,84,120,132.5,-142.5,132.5,95,100,-103,100,140,157.5,-162.5,157.5,390,Norway,Masters 3,Raw,,SBD,F
2,Tracy Chipping,1961,83.2,84,120,127.5,132.5,132.5,65,70,-72.5,70,135,145,152.5,152.5,355,New Zealand,Masters 3,Raw,,SBD,F
3,Tove Michalsen,1959,81.12,84,107.5,117.5,122.5,122.5,52.5,57.5,-62.5,57.5,120,127.5,-130,127.5,307.5,Norway,Masters 3,Raw,,SBD,F
DQ,Linda Rousseau,1953,81.68,84,-117.5,-117.5,-117.5,-117.5,55,60,62.5,62.5,110,117.5,-125,117.5,,Canada,Masters 3,Raw,,SBD,F
1,Vicki Brackett,1957,126.06,84+,115,122.5,-130,122.5,70,75,77.5,77.5,161,-170,172.5,172.5,372.5,USA,Masters 3,Raw,,SBD,F
2,Monika Norberg,1961,98.26,84+,-110,110,120,120,72.5,77.5,80,80,140,150,-161.5,150,350,Sweden,Masters 3,Raw,,SBD,F
3,Ann Jordebo,1960,96.4,84+,112.5,117.5,122.5,122.5,60,62.5,-65,62.5,130,140,-150,140,325,Sweden,Masters 3,Raw,,SBD,F
4,Susan Bonneau,1960,95.3,84+,110,115,120,120,55,-57.5,-57.5,55,110,117.5,120,120,295,Canada,Masters 3,Raw,,SBD,F
5,Brith Ediassen,1957,97.2,84+,100,-105,105,105,47.5,50,-52.5,50,115,-122.5,-122.5,115,270,Norway,Masters 3,Raw,,SBD,F
1,Susan Elwyn,1947,48.06,52,70,-80.5,80.5,80.5,30,35,37.5,37.5,105,115,117.5,117.5,235.5,US Virgin Islands,Masters 4,Raw,,SBD,F
1,Cherry Wilson,1950,56.04,57,75,80.5,83,83,37.5,40,42.5,42.5,102.5,107.5,110,110,235.5,New Zealand,Masters 4,Raw,,SBD,F
2,Janet Warne,1952,55.16,57,77.5,82.5,83.5,83.5,35,37.5,40,40,82.5,87.5,92.5,92.5,216,Canada,Masters 4,Raw,,SBD,F
3,Nancy Sassaman,1948,55.36,57,42.5,52.5,60,60,30,35,37.5,37.5,85,95,100,100,197.5,USA,Masters 4,Raw,,SBD,F
1,Shelly Stettner,1951,59.94,63,110,115,-117.5,115,65,67.5,68,68,132.5,140,142.5,142.5,325.5,USA,Masters 4,Raw,,SBD,F
2,Kathlyn Jensen,1950,59.44,63,57.5,60,62.5,62.5,45,-47.5,-47.5,45,90,95,102.5,102.5,210,Canada,Masters 4,Raw,,SBD,F
3,Abbey Moon,1944,57.66,63,47.5,52.5,-57.5,52.5,47.5,52.5,-55,52.5,85,92.5,-102.5,92.5,197.5,US Virgin Islands,Masters 4,Raw,,SBD,F
1,Gale Williams,1947,66.9,69,80,85,87.5,87.5,55,60,62.5,62.5,122.5,130,136.5,136.5,286.5,USA,Masters 4,Raw,,SBD,F
1,Anne Mari Clausen,1942,70.98,76,57.5,62.5,65,65,42.5,45,-47.5,45,77.5,82.5,85,85,195,Norway,Masters 4,Raw,,SBD,F
1,Ruby Koritarov,1948,101.16,84+,72.5,77.5,82.5,82.5,45,50,52.5,52.5,105,110,115,115,250,Canada,Masters 4,Raw,,SBD,F
1,Eric Oishi,1979,65.74,66,55,-75,-75,55,150,160,165,165,125,-175,-175,125,345,Brazil,Masters 1,Single-ply,,SBD,M
1,Damarrio Holloway,1980,72.58,74,-265,265,-272.5,265,205,-212.5,212.5,212.5,265,277.5,287.5,287.5,765,USA,Masters 1,Single-ply,,SBD,M
2,Enkhbat Sanduijav,1974,72.36,74,245,-260,-260,245,145,155,-165,155,225,240,-265,240,640,Mongolia,Masters 1,Single-ply,,SBD,M
1,Nathan Walton,1976,81.64,83,285,295,-305,295,180,-190,-190,180,280,300,310,310,785,USA,Masters 1,Single-ply,,SBD,M
2,Keitaro Oishi,1981,77.76,83,225,240,245,245,155,165,-175,165,210,230,240,240,650,Japan,Masters 1,Single-ply,,SBD,M
1,Robert King,1974,84.22,93,175,182.5,192.5,192.5,125,132.5,-137.5,132.5,205,217.5,-227.5,217.5,542.5,Canada,Masters 1,Single-ply,,SBD,M
1,Ryan Donnelly,1982,104.28,105,-270,270,292.5,292.5,-212.5,-212.5,212.5,212.5,265,287.5,-307.5,287.5,792.5,USA,Masters 1,Single-ply,,SBD,M
2,Gabriel García,1975,96.5,105,-287.5,-287.5,287.5,287.5,185,195,202.5,202.5,280,295,-307.5,295,785,Mexico,Masters 1,Single-ply,,SBD,M
3,Thorsten Thenhart,1975,104.64,105,290,297.5,,297.5,210,215,220,220,232.5,242.5,247.5,247.5,765,Germany,Masters 1,Single-ply,,SBD,M
4,Jim Derksen,1974,104.86,105,247.5,252.5,257.5,257.5,-160,160,165,165,-250,250,260,260,682.5,Canada,Masters 1,Single-ply,,SBD,M
5,Norbert Kropf,1978,103.94,105,240,250,-255,250,-195,195,-205,195,225,235,-240,235,680,Germany,Masters 1,Single-ply,,SBD,M
1,Steve Mann #1,1975,119.32,120,365,-385,-385,365,282.5,-300,300,300,287.5,307.5,327.5,327.5,992.5,USA,Masters 1,Single-ply,,SBD,M
2,Alex Alvarado,1974,118.8,120,275,-285,-285,275,-215,215,222.5,222.5,215,227.5,235,235,732.5,Puerto Rico,Masters 1,Single-ply,,SBD,M
3,Janne Hakala,1979,118.24,120,245,255,-265,255,-167.5,167.5,177.5,177.5,240,255,267.5,267.5,700,Finland,Masters 1,Single-ply,,SBD,M
4,Joergen Michael Rasmussen,1973,109.18,120,-225,225,245,245,160,167.5,-177.5,167.5,-195,195,215,215,627.5,Denmark,Masters 1,Single-ply,,SBD,M
1,Ryan Stinn,1981,144.1,120+,365,-390,390,390,265,275,-282.5,275,300,-322.5,-342.5,300,965,Canada,Masters 1,Single-ply,,SBD,M
2,Andrew Cargill #2,1980,145.42,120+,-300,300,320,320,260,-270,270,270,290,310,-325,310,900,USA,Masters 1,Single-ply,,SBD,M
3,Uurtsaikh Bazarsuren,1973,123.3,120+,205,-260,-290,205,170,-250,-270,170,200,-220,,200,575,Mongolia,Masters 1,Single-ply,,SBD,M
1,Bernie McGurk,1968,65.32,66,225,232.5,-237.5,232.5,127.5,132.5,-135,132.5,-245,255,270,270,635,UK,Masters 2,Single-ply,,SBD,M
2,Jay McGrath,1968,65.08,66,190,200,205,205,122.5,127.5,132.5,132.5,200,210,212.5,212.5,550,Canada,Masters 2,Single-ply,,SBD,M
1,Michael Bernard,1970,71.56,74,220,-230,230,230,190,195,-200.5,195,190,200,-205,200,625,France,Masters 2,Single-ply,,SBD,M
2,Travis Pardue,1971,73.18,74,200,210,215,215,132.5,137.5,142.5,142.5,227.5,240,252.5,252.5,610,USA,Masters 2,Single-ply,,SBD,M
3,Lewis Noppers,1970,69.98,74,205,215,-225,215,115,122.5,127.5,127.5,227.5,240,252.5,252.5,595,Canada,Masters 2,Single-ply,,SBD,M
4,Amarsanaa Khuujii,1972,73.9,74,160,,,160,130,-135,-142.5,130,150,,,150,440,Mongolia,Masters 2,Single-ply,,SBD,M
1,Keith Nautel,1965,81.38,83,235,240,247.5,247.5,162.5,167.5,-172.5,167.5,267.5,270,275,275,690,USA,Masters 2,Single-ply,,SBD,M
2,George Millar,1968,82.58,83,220,230,-237.5,230,145,152.5,-155,152.5,230,245,252.5,252.5,635,UK,Masters 2,Single-ply,,SBD,M
3,Thomas Gustavsson,1970,82.64,83,230,240,245,245,125,130,-135,130,235,245,-250,245,620,Sweden,Masters 2,Single-ply,,SBD,M
4,Chris Boillot,1963,80.3,83,212.5,222.5,232.5,232.5,140,147.5,152.5,152.5,212.5,-225,225,225,610,USA,Masters 2,Single-ply,,SBD,M
DQ,Rami Huovinen,1964,82.8,83,-220,-220,-220,-220,-115,-115,115,115,190,-192.5,-192.5,190,,Finland,Masters 2,Single-ply,,SBD,M
1,Mario Schnurr,1966,92.92,93,235,-252.5,,235,195,202.5,-207.5,202.5,250,262.5,-270,262.5,700,Germany,Masters 2,Single-ply,,SBD,M
2,Guido Nieland,1970,92.74,93,240,-252.5,-255,240,187.5,195,-200,195,230,245,255,255,690,Germany,Masters 2,Single-ply,,SBD,M
3,Lars Höglander,1964,92.44,93,250,260,265,265,165,170,-172.5,170,227.5,-252.5,-265,227.5,662.5,Sweden,Masters 2,Single-ply,,SBD,M
4,Barry Antoniow,1972,91.44,93,200,212.5,225,225,227.5,-282.5,-282.5,227.5,180,-202.5,202.5,202.5,655,Canada,Masters 2,Single-ply,,SBD,M
5,Lawrence Walsh,1966,91.22,93,205,-212.5,215,215,145,-150,150,150,200,220,-227.5,220,585,Canada,Masters 2,Single-ply,,SBD,M
1,Jason Johnson,1971,104.66,105,275,-285,-285,275,225,235,242.5,242.5,270,282.5,-295,282.5,800,USA,Masters 2,Single-ply,,SBD,M
2,Jeff Butt,1970,96.12,105,-272.5,272.5,280,280,182.5,190,195,195,275,287.5,290,290,765,Canada,Masters 2,Single-ply,,SBD,M
3,Michael Kalter,1972,104.62,105,-275,275,-285,275,170,180,187.5,187.5,-285,285,-305,285,747.5,USA,Masters 2,Single-ply,,SBD,M
4,Christo Schoonraad,1963,103.28,105,265,-285,-285,265,160,-170,-170,160,250,265,270,270,695,South Africa,Masters 2,Single-ply,,SBD,M
5,Nicolás Urioste,1968,97.86,105,220,237.5,252.5,252.5,182.5,187.5,-190,187.5,235,252.5,-260,252.5,692.5,Uruguay,Masters 2,Single-ply,,SBD,M
6,Kaj Wasenius,1972,103.86,105,225,230,235,235,140,165,172.5,172.5,235,252.5,-275,252.5,660,Finland,Masters 2,Single-ply,,SBD,M
1,Wilson Martinez,1965,117.44,120,-265,-285,285,285,202.5,-207.5,-207.5,202.5,265,282.5,290,290,777.5,USA,Masters 2,Single-ply,,SBD,M
2,Ronny Andersen,1964,119,120,260,270,275,275,222.5,227.5,-232.5,227.5,252.5,-270,-275,252.5,755,Norway,Masters 2,Single-ply,,SBD,M
3,Kaj Mattila,1970,107.38,120,247.5,255,260,260,192.5,-197.5,197.5,197.5,225,232.5,240,240,697.5,Finland,Masters 2,Single-ply,,SBD,M
4,Tapani Laitala,1963,114.68,120,270,277.5,-285,277.5,135,-140,145,145,240,250,-277.5,250,672.5,Finland,Masters 2,Single-ply,,SBD,M
DQ,Luis Ramírez,1965,109.74,120,-240,250,-255,250,-190,-190,-190,-190,215,-220,220,220,,Mexico,Masters 2,Single-ply,,SBD,M
1,Jaroslav Šoukal,1972,169.86,120+,292.5,-295,365.5,365.5,222.5,,,222.5,270,-272.5,,270,858,Czechia,Masters 2,Single-ply,,SBD,M
2,Wim Wamsteeker,1969,133.04,120+,255,267.5,275,275,160,167.5,,167.5,240,257.5,-265,257.5,700,Netherlands,Masters 2,Single-ply,,SBD,M
NS,Thomas V J,1962,,,,,,,,,,,,,,,,India,Masters 3,Single-ply,,SBD,M
1,Michael Rodriquez,1961,73.06,74,195,205,212.5,212.5,140,-150,-150,140,205,215,220,220,572.5,USA,Masters 3,Single-ply,,SBD,M
2,Koichi Taniguchi,1960,72.68,74,-185,-185,185,185,-135,-135,135,135,205,215,-225,215,535,Japan,Masters 3,Single-ply,,SBD,M
3,Allen Ottolangui,1960,73.76,74,190,205,210,210,115,-120,120,120,190,-202.5,-207.5,190,520,UK,Masters 3,Single-ply,,SBD,M
4,Patrick Malenfant,1958,72.46,74,-175,-175,175,175,115,-120,120,120,170,180,,180,475,France,Masters 3,Single-ply,,SBD,M
1,James Abraham,1961,82.28,83,-190,190,197.5,197.5,130,135,137.5,137.5,217.5,-225,225,225,560,Canada,Masters 3,Single-ply,,SBD,M
2,Doug D'Gama,1962,82.06,83,195,205,-210,205,120,-125,-125,120,195,210,227.5,227.5,552.5,UK,Masters 3,Single-ply,,SBD,M
3,Tomas Ring,1960,82.56,83,-150,150,-165,150,-190,190,-193.5,190,100,-140,-152.5,100,440,Sweden,Masters 3,Single-ply,,SBD,M
4,Bill Clayton,1953,79.3,83,-145,145,-155,145,87.5,-95,-95,87.5,150,160,-170,160,392.5,USA,Masters 3,Single-ply,,SBD,M
DQ,Erik Rasmussen,1962,82.28,83,220,-227.5,-227.5,220,140,147.5,152.5,152.5,-150,-150,-150,-150,,Denmark,Masters 3,Single-ply,,SBD,M
1,Jan Edvard Jensen,1959,92.66,93,-250,250,-270,250,155,165,-172.5,165,235,250,260,260,675,Norway,Masters 3,Single-ply,,SBD,M
2,Thomas Cencich,1960,91.28,93,160,-185,-185,160,195.5,-197.5,197.5,197.5,175,195,205,205,562.5,USA,Masters 3,Single-ply,,SBD,M
1,Katsumi Akiyama,1962,104.36,105,140,160,180,180,160,167.5,-180,167.5,160,180,-190,180,527.5,Japan,Masters 3,Single-ply,,SBD,M
1,Ron Kilpatrick,1959,106.58,120,220,230,240,240,60,80,92.5,92.5,215,225,235,235,567.5,Canada,Masters 3,Single-ply,,SBD,M
1,Ron Strong,1958,121.74,120+,240,250,-255,250,-175,177.5,-185,177.5,270,275,277.5,277.5,705,Canada,Masters 3,Single-ply,,SBD,M
2,Lars Lampinen,1961,122.88,120+,230,-242.5,-242.5,230,130,-160,180,180,225,240,-260,240,650,Finland,Masters 3,Single-ply,,SBD,M
DQ,Phil Frost,1962,129.14,120+,230,-242.5,-242.5,230,-220,-225,-225,-220,75,,,75,,UK,Masters 3,Single-ply,,SBD,M
1,Tsutomu Ichikawa,1947,73.28,74,147.5,-152.5,152.5,152.5,-145,145,-150,145,140,145,-150,145,442.5,Japan,Masters 4,Single-ply,,SBD,M
1,Ron Delaney,1951,82.9,83,155,162.5,-177.5,162.5,100,107.5,110,110,210,220,227.5,227.5,500,Canada,Masters 4,Single-ply,,SBD,M
2,Jeff Hughes,1946,80.72,83,-147.5,147.5,152.5,152.5,100,105,110,110,182.5,192.5,195,195,457.5,USA,Masters 4,Single-ply,,SBD,M
1,Mick Ellender,1945,92.26,93,60,75,85,85,110,120,-125,120,160,180,190,190,395,UK,Masters 4,Single-ply,,SBD,M
2,Tapani Puhakka,1944,86.42,93,65,-75,75,75,85,90,-95,90,140,157.5,165,165,330,Finland,Masters 4,Single-ply,,SBD,M
3,Bill Helmich,1942,84.8,93,95,100,105,105,60,65,70,70,120,135,152.5,152.5,327.5,USA,Masters 4,Single-ply,,SBD,M
1,Miroslav Koprnicky,1951,102.14,105,145,150,155,155,115,122.5,125,125,175,187.5,200,200,480,Canada,Masters 4,Single-ply,,SBD,M
1,Elisabeth Barry,1973,46.72,47,90,95,100,100,42.5,45,47.5,47.5,100,110,112.5,112.5,260,South Africa,Masters 1,Single-ply,,SBD,F
2,Katja Ronkainen,1973,46.5,47,85,92.5,100,100,45,47.5,50,50,90,100,107.5,107.5,257.5,Finland,Masters 1,Single-ply,,SBD,F
1,Louise Edwards #1,1978,51.36,52,120,,-122.5,120,60,65,67.5,67.5,130,140,150,150,337.5,UK,Masters 1,Single-ply,,SBD,F
1,Janel Brown,1973,56.38,57,155,160,-170,160,70,75,80,80,-142.5,145,155,155,395,US Virgin Islands,Masters 1,Single-ply,,SBD,F
2,Joanne Rose,1973,56.48,57,-125,125,132.5,132.5,77.5,-82.5,-82.5,77.5,140,147.5,157.5,157.5,367.5,Canada,Masters 1,Single-ply,,SBD,F
3,Maura Shuttleworth,1976,56.36,57,107.5,112.5,-120,112.5,110,117.5,122.5,122.5,110,117.5,-122.5,117.5,352.5,USA,Masters 1,Single-ply,,SBD,F
1,Kathleen Compagnie,1980,62.62,63,-157.5,157.5,-162.5,157.5,105,-110,-110,105,150,157.5,162.5,162.5,425,Belgium,Masters 1,Single-ply,,SBD,F
2,Merinda O'Brien,1980,62.08,63,137.5,-150,150,150,85,90,-95,90,-157.5,172.5,-185,172.5,412.5,Australia,Masters 1,Single-ply,,SBD,F
3,Denton-O'Neill Erin,1973,60.58,63,125,130,135,135,77.5,82.5,87.5,87.5,110,117.5,135,135,357.5,Canada,Masters 1,Single-ply,,SBD,F
1,Cícera Tavares,1976,68.52,69,215,225,235,235,115,122.5,127.5,127.5,205,220,225,225,587.5,Brazil,Masters 1,Single-ply,,SBD,F
2,Verena Rehagel,1980,68.2,69,-157.5,160,-167.5,160,85,90,-92.5,90,155,162.5,167.5,167.5,417.5,Germany,Masters 1,Single-ply,,SBD,F
DQ,Shantelle Szuch,1979,65.22,69,167.5,175,182.5,182.5,-95,-95,-95,-95,177.5,185,192.5,192.5,,Canada,Masters 1,Single-ply,,SBD,F
1,Iolanda Costa Zolyome,1977,75.22,76,200,-225,-225,200,125,-135,135,135,185,195,200,200,535,Brazil,Masters 1,Single-ply,,SBD,F
2,Manuela Hauß,1980,73.38,76,150,157.5,-162.5,157.5,75,-90,-90,75,150,167.5,175,175,407.5,Germany,Masters 1,Single-ply,,SBD,F
DQ,Amber Gomez,1978,75.02,76,-145,-145,-145,-145,87.5,90,-95,90,140,160,-162.5,160,,US Virgin Islands,Masters 1,Single-ply,,SBD,F
1,Heather Unsworth,1976,82.5,84,170,180,-192.5,180,95,100,107.5,107.5,165,180,-192.5,180,467.5,Canada,Masters 1,Single-ply,,SBD,F
2,Glenda Brown,1973,76.76,84,130,135,140,140,85,-90,92.5,92.5,145,152.5,-162.5,152.5,385,Canada,Masters 1,Single-ply,,SBD,F
1,Kamilah Todd,1980,113.06,84+,-217.5,217.5,-230,217.5,130,-137.5,145,145,170,185,-195,185,547.5,US Virgin Islands,Masters 1,Single-ply,,SBD,F
2,Heidi Fowler,1980,90.78,84+,-157.5,157.5,165,165,122.5,130,135,135,145,155,160,160,460,Canada,Masters 1,Single-ply,,SBD,F
3,Helena Rehnberg,1979,128.26,84+,150,160,167.5,167.5,105,110,-112.5,110,150,165,-185,165,442.5,Finland,Masters 1,Single-ply,,SBD,F
4,Vicky Taylor-Hood,1975,89.68,84+,165,175,182.5,182.5,65,70,75,75,160,-175,-175,160,417.5,Canada,Masters 1,Single-ply,,SBD,F
1,Eva Buxbom,1969,51.36,52,145,156,160,160,75,77.5,-80,77.5,155,166,-173,166,403.5,Denmark,Masters 2,Single-ply,,SBD,F
2,Carol Anthony,1966,51.5,52,107.5,117.5,-122.5,117.5,47.5,52.5,55,55,115,120,125,125,297.5,South Africa,Masters 2,Single-ply,,SBD,F
3,Angel Yau-Vandenburg,1972,51.1,52,107.5,112.5,-115,112.5,60,65,67.5,67.5,102.5,110,115,115,295,Canada,Masters 2,Single-ply,,SBD,F
1,Nina Honka,1972,56.36,57,135,145,152.5,152.5,72.5,77.5,80,80,145,155,162.5,162.5,395,Finland,Masters 2,Single-ply,,SBD,F
2,Kim Connors,1969,55.2,57,95,97.5,-102.5,97.5,-52.5,-52.5,52.5,52.5,105,115,120,120,270,Canada,Masters 2,Single-ply,,SBD,F
1,Anita Stavik,1965,61.94,63,155,160,-165,160,67.5,-72.5,-72.5,67.5,150,-155,-155,150,377.5,Norway,Masters 2,Single-ply,,SBD,F
2,Maureen Gordon,1964,61.38,63,117.5,-125,125,125,92.5,97.5,100,100,132.5,137.5,142.5,142.5,367.5,UK,Masters 2,Single-ply,,SBD,F
3,Yvonne Treharne,1966,60.98,63,107.5,115,-122.5,115,55,60,-65,60,97.5,105,-110,105,280,UK,Masters 2,Single-ply,,SBD,F
1,Florence Leccese,1969,63.6,69,127.5,137.5,142.5,142.5,77.5,82.5,87.5,87.5,110,122.5,-132.5,122.5,352.5,France,Masters 2,Single-ply,,SBD,F
DQ,Kim Wilson,1968,65.5,69,125,137.5,-142.5,137.5,-77.5,-77.5,-77.5,-77.5,155,165,175,175,,US Virgin Islands,Masters 2,Single-ply,,SBD,F
1,Ulrika Johansson,1972,73.22,76,155,165,-175,165,65,95,105,105,147.5,155,160,160,430,Sweden,Masters 2,Single-ply,,SBD,F
2,Gro-Berit Stavheim,1964,72.8,76,145,152.5,-160,152.5,65,70,72.5,72.5,145,152.5,157.5,157.5,382.5,Norway,Masters 2,Single-ply,,SBD,F
3,Andrea Thurner,1966,69.62,76,130,140,145,145,72.5,77.5,80,80,140,150,155,155,380,Austria,Masters 2,Single-ply,,SBD,F
4,Sybille Hampel,1967,75.46,76,-142.5,142.5,147.5,147.5,70,77.5,-82.5,77.5,130,142.5,-155,142.5,367.5,Germany,Masters 2,Single-ply,,SBD,F
5,Melissa Wall,1966,73.54,76,100,107.5,-110,107.5,70,-75,-75,70,130,135,137.5,137.5,315,UK,Masters 2,Single-ply,,SBD,F
1,Joanne Frost,1971,77.42,84,-150,150,155,155,85,-90,90,90,135,145,150,150,395,UK,Masters 2,Single-ply,,SBD,F
2,Sharon McCarthy,1965,83.7,84,-140,140,147.5,147.5,60,67.5,70,70,130,137.5,-145,137.5,355,Canada,Masters 2,Single-ply,,SBD,F
1,Jo Whiteley,1970,125.52,84+,165,175,180,180,152.5,-158,-158,152.5,172.5,177.5,187.5,187.5,520,UK,Masters 2,Single-ply,,SBD,F
2,Alisa Cutler,1969,131.2,84+,-125,125,-130,125,100,105,110,110,172.5,177.5,-195,177.5,412.5,Canada,Masters 2,Single-ply,,SBD,F
3,Gwendelyn Grasdal,1966,125.64,84+,-145,-145,145,145,85,87.5,-90,87.5,120,127.5,132.5,132.5,365,Canada,Masters 2,Single-ply,,SBD,F
1,Marnel Spencer,1962,45.88,47,112.5,116,118,118,60,62.5,65,65,117.5,122.5,127.5,127.5,310.5,Canada,Masters 3,Single-ply,,SBD,F
2,Yoshie Takizawa,1957,45.62,47,-102.5,102.5,120,120,-60,60,65,65,102.5,112.5,-125,112.5,297.5,Japan,Masters 3,Single-ply,,SBD,F
1,Socorro Perez,1959,60.02,63,92.5,-102.5,102.5,102.5,85,-90,-95,85,115,125,130,130,317.5,Mexico,Masters 3,Single-ply,,SBD,F
1,Donna Marts,1960,68,69,135,-145,145,145,90,-95,95,95,160,172.5,-177.5,172.5,412.5,USA,Masters 3,Single-ply,,SBD,F
1,Mava Brydges,1957,75.32,76,125,132.5,137.5,137.5,77.5,82.5,85,85,130,137.5,147.5,147.5,370,Canada,Masters 3,Single-ply,,SBD,F
1,Susan Elwyn,1947,48.14,52,-85,85,-100.5,85,37.5,42.5,45,45,110,122.5,130.5,130.5,260.5,US Virgin Islands,Masters 4,Single-ply,,SBD,F
1,Carol Brady,1950,66.14,69,85,90,95,95,62.5,-65,-65,62.5,80,90,100,100,257.5,Canada,Masters 4,Single-ply,,SBD,F
1,Susan Haywood,1949,80.3,84,-77.5,77.5,82.5,82.5,35,52.5,57.5,57.5,80,87.5,95,95,235,Canada,Masters 4,Single-ply,,SBD,F
1,Ruby Koritarov,1948,101.58,84+,75,82.5,87.5,87.5,55,60,65,65,105,112.5,117.5,117.5,270,Canada,Masters 4,Single-ply,,SBD,F
